task_2_new/task_2_new.sim/sim_1/behav/xsim/simulation.vcd
$date
   Thu Jun 26 14:33:53 2025
$end

$version
  2024.2.0
  $dumpfile ("simulation.vcd") 
$end

$timescale
  1ps
$end

$scope module testbench $end
$var reg 1 ! clk $end
$var reg 2 " sw [1:0] $end
$var wire 4 # led [3:0] $end
$scope module test $end
$var wire 1 $ sysclk $end
$var wire 2 % sw [1:0] $end
$var reg 4 & led [3:0] $end
$var reg 30 ' counter [29:0] $end
$var reg 2 ( blink_status [1:0] $end
$var reg 3 ) status [2:0] $end
$var reg 2 * pwm_direction [1:0] $end
$var reg 18 + periodLength [17:0] $end
$var reg 18 , dutyStep [17:0] $end
$var reg 18 - dutyCounter [17:0] $end
$var reg 18 . dutyValue [17:0] $end
$var reg 27 / half_second [26:0] $end
$upscope $end
$upscope $end
$enddefinitions $end

#0
$dumpvars
0!
b10 "
bx #
0$
b10 %
bx &
bx '
b1 (
b0 )
b1 *
b111010000100100000 +
b111110100 ,
b0 -
b0 .
b11101110011010110010011111 /
$end

#4000
1!
b0 #
1$
b0 &
b0 '
b1 )

#8000
0!
0$

#12000
1!
b1 #
1$
b1 &
b1 '

#16000
0!
0$

#20000
1!
1$
b10 '

#24000
0!
0$

#28000
1!
1$
b11 '

#32000
0!
0$

#36000
1!
1$
b100 '

#40000
0!
0$

#44000
1!
1$
b101 '

#48000
0!
0$

#50000
b11 "
b11 %

#52000
1!
b0 #
1$
b0 &
b1 -

#56000
0!
0$

#60000
1!
1$
b10 -

#64000
0!
0$

#68000
1!
1$
b11 -

#72000
0!
0$

#76000
1!
1$
b100 -

#80000
0!
0$

#84000
1!
1$
b101 -

#88000
0!
0$

#92000
1!
1$
b110 -

#96000
0!
0$

#100000
1!
1$
b111 -

#104000
0!
0$

#108000
1!
1$
b1000 -

#112000
0!
0$

#116000
1!
1$
b1001 -

#120000
0!
0$

#124000
1!
1$
b1010 -

#128000
0!
0$

#132000
1!
1$
b1011 -

#136000
0!
0$

#140000
1!
1$
b1100 -

#144000
0!
0$

#148000
1!
1$
b1101 -

#152000
0!
0$

#156000
1!
1$
b1110 -

#160000
0!
0$

#164000
1!
1$
b1111 -

#168000
0!
0$

#172000
1!
1$
b10000 -

#176000
0!
0$

#180000
1!
1$
b10001 -

#184000
0!
0$

#188000
1!
1$
b10010 -

#192000
0!
0$

#196000
1!
1$
b10011 -

#200000
0!
0$

#204000
1!
1$
b10100 -

#208000
0!
0$

#212000
1!
1$
b10101 -

#216000
0!
0$

#220000
1!
1$
b10110 -

#224000
0!
0$

#228000
1!
1$
b10111 -

#232000
0!
0$

#236000
1!
1$
b11000 -

#240000
0!
0$

#244000
1!
1$
b11001 -

#248000
0!
0$

#252000
1!
1$
b11010 -

#256000
0!
0$

#260000
1!
1$
b11011 -

#264000
0!
0$

#268000
1!
1$
b11100 -

#272000
0!
0$

#276000
1!
1$
b11101 -

#280000
0!
0$

#284000
1!
1$
b11110 -

#288000
0!
0$

#292000
1!
1$
b11111 -

#296000
0!
0$

#300000
1!
1$
b100000 -

#304000
0!
0$

#308000
1!
1$
b100001 -

#312000
0!
0$

#316000
1!
1$
b100010 -

#320000
0!
0$

#324000
1!
1$
b100011 -

#328000
0!
0$

#332000
1!
1$
b100100 -

#336000
0!
0$

#340000
1!
1$
b100101 -

#344000
0!
0$

#348000
1!
1$
b100110 -

#352000
0!
0$

#356000
1!
1$
b100111 -

#360000
0!
0$

#364000
1!
1$
b101000 -

#368000
0!
0$

#372000
1!
1$
b101001 -

#376000
0!
0$

#380000
1!
1$
b101010 -

#384000
0!
0$

#388000
1!
1$
b101011 -

#392000
0!
0$

#396000
1!
1$
b101100 -

#400000
0!
0$

#404000
1!
1$
b101101 -

#408000
0!
0$

#412000
1!
1$
b101110 -

#416000
0!
0$

#420000
1!
1$
b101111 -

#424000
0!
0$

#428000
1!
1$
b110000 -

#432000
0!
0$

#436000
1!
1$
b110001 -

#440000
0!
0$

#444000
1!
1$
b110010 -

#448000
0!
0$

#452000
1!
1$
b110011 -

#456000
0!
0$

#460000
1!
1$
b110100 -

#464000
0!
0$

#468000
1!
1$
b110101 -

#472000
0!
0$

#476000
1!
1$
b110110 -

#480000
0!
0$

#484000
1!
1$
b110111 -

#488000
0!
0$

#492000
1!
1$
b111000 -

#496000
0!
0$

#500000
1!
1$
b111001 -

#504000
0!
0$

#508000
1!
1$
b111010 -

#512000
0!
0$

#516000
1!
1$
b111011 -

#520000
0!
0$

#524000
1!
1$
b111100 -

#528000
0!
0$

#532000
1!
1$
b111101 -

#536000
0!
0$

#540000
1!
1$
b111110 -

#544000
0!
0$

#548000
1!
1$
b111111 -

#552000
0!
0$

#556000
1!
1$
b1000000 -

#560000
0!
0$

#564000
1!
1$
b1000001 -

#568000
0!
0$

#572000
1!
1$
b1000010 -

#576000
0!
0$

#580000
1!
1$
b1000011 -

#584000
0!
0$

#588000
1!
1$
b1000100 -

#592000
0!
0$

#596000
1!
1$
b1000101 -

#600000
0!
0$

#604000
1!
1$
b1000110 -

#608000
0!
0$

#612000
1!
1$
b1000111 -

#616000
0!
0$

#620000
1!
1$
b1001000 -

#624000
0!
0$

#628000
1!
1$
b1001001 -

#632000
0!
0$

#636000
1!
1$
b1001010 -

#640000
0!
0$

#644000
1!
1$
b1001011 -

#648000
0!
0$

#652000
1!
1$
b1001100 -

#656000
0!
0$

#660000
1!
1$
b1001101 -

#664000
0!
0$

#668000
1!
1$
b1001110 -

#672000
0!
0$

#676000
1!
1$
b1001111 -

#680000
0!
0$

#684000
1!
1$
b1010000 -

#688000
0!
0$

#692000
1!
1$
b1010001 -

#696000
0!
0$

#700000
1!
1$
b1010010 -

#704000
0!
0$

#708000
1!
1$
b1010011 -

#712000
0!
0$

#716000
1!
1$
b1010100 -

#720000
0!
0$

#724000
1!
1$
b1010101 -

#728000
0!
0$

#732000
1!
1$
b1010110 -

#736000
0!
0$

#740000
1!
1$
b1010111 -

#744000
0!
0$

#748000
1!
1$
b1011000 -

#752000
0!
0$

#756000
1!
1$
b1011001 -

#760000
0!
0$

#764000
1!
1$
b1011010 -

#768000
0!
0$

#772000
1!
1$
b1011011 -

#776000
0!
0$

#780000
1!
1$
b1011100 -

#784000
0!
0$

#788000
1!
1$
b1011101 -

#792000
0!
0$

#796000
1!
1$
b1011110 -

#800000
0!
0$

#804000
1!
1$
b1011111 -

#808000
0!
0$

#812000
1!
1$
b1100000 -

#816000
0!
0$

#820000
1!
1$
b1100001 -

#824000
0!
0$

#828000
1!
1$
b1100010 -

#832000
0!
0$

#836000
1!
1$
b1100011 -

#840000
0!
0$

#844000
1!
1$
b1100100 -

#848000
0!
0$

#852000
1!
1$
b1100101 -

#856000
0!
0$

#860000
1!
1$
b1100110 -

#864000
0!
0$

#868000
1!
1$
b1100111 -

#872000
0!
0$

#876000
1!
1$
b1101000 -

#880000
0!
0$

#884000
1!
1$
b1101001 -

#888000
0!
0$

#892000
1!
1$
b1101010 -

#896000
0!
0$

#900000
1!
1$
b1101011 -

#904000
0!
0$

#908000
1!
1$
b1101100 -

#912000
0!
0$

#916000
1!
1$
b1101101 -

#920000
0!
0$

#924000
1!
1$
b1101110 -

#928000
0!
0$

#932000
1!
1$
b1101111 -

#936000
0!
0$

#940000
1!
1$
b1110000 -

#944000
0!
0$

#948000
1!
1$
b1110001 -

#952000
0!
0$

#956000
1!
1$
b1110010 -

#960000
0!
0$

#964000
1!
1$
b1110011 -

#968000
0!
0$

#972000
1!
1$
b1110100 -

#976000
0!
0$

#980000
1!
1$
b1110101 -

#984000
0!
0$

#988000
1!
1$
b1110110 -

#992000
0!
0$

#996000
1!
1$
b1110111 -

